------------------------------------------------------------------------
r1116667 | scripty | 2010-04-20 14:08:56 +1200 (Tue, 20 Apr 2010) | 1 line

SVN_SILENT made messages (.desktop file)
------------------------------------------------------------------------
