------------------------------------------------------------------------
r1055448 | scripty | 2009-11-28 04:12:05 +0000 (Sat, 28 Nov 2009) | 1 line

SVN_SILENT made messages (.desktop file)
------------------------------------------------------------------------
r1066855 | scripty | 2009-12-28 04:21:16 +0000 (Mon, 28 Dec 2009) | 1 line

SVN_SILENT made messages (.desktop file)
------------------------------------------------------------------------
r1072376 | scripty | 2010-01-10 04:09:38 +0000 (Sun, 10 Jan 2010) | 1 line

SVN_SILENT made messages (.desktop file)
------------------------------------------------------------------------
r1076368 | scripty | 2010-01-18 04:08:48 +0000 (Mon, 18 Jan 2010) | 1 line

SVN_SILENT made messages (.desktop file)
------------------------------------------------------------------------
r1077394 | scripty | 2010-01-20 04:18:20 +0000 (Wed, 20 Jan 2010) | 1 line

SVN_SILENT made messages (.desktop file)
------------------------------------------------------------------------
r1077835 | ilic | 2010-01-20 23:32:20 +0000 (Wed, 20 Jan 2010) | 3 lines

Honor file list sorting when opening/creating new file. (bport: 1070443)
CCBUG: 184055

------------------------------------------------------------------------
