------------------------------------------------------------------------
r960898 | scripty | 2009-04-29 08:18:51 +0000 (Wed, 29 Apr 2009) | 1 line

SVN_SILENT made messages (.desktop file)
------------------------------------------------------------------------
