------------------------------------------------------------------------
r1127273 | lueck | 2010-05-16 18:25:27 +1200 (Sun, 16 May 2010) | 1 line

add missing i18n()
------------------------------------------------------------------------
